<svg xmlns="http://www.w3.org/2000/svg" width="16" height="16" viewBox="0 0 16 16">
  <path fill-rule="evenodd" d="M9 6H2C.9 6 0 6.9 0 8s.9 2 2 2h7v2.6c0 .25.1.5.3.7.38.38 1.02.38 1.4 0l4.6-4.6c.38-.38.38-1.02 0-1.4l-4.6-4.6c-.18-.18-.43-.3-.7-.3-.55 0-1 .46-1 1V6z"/>
</svg>
